id,name,model_id:id,group_id:id,perm_read,perm_write,perm_create,perm_unlink
user_objective1,user_objective1,model_mwide_strat_objective,strat_group_user,1,0,0,0
user_objective2,user_objective2,model_mwide_strat_objective,strat_group_manager,1,1,1,1

user_strategy1,user_strategy1,model_mwide_strat_strategy,strat_group_user,1,0,0,0
user_strategy2,user_strategy2,model_mwide_strat_strategy,strat_group_manager,1,1,1,1

user_category1,user_category1,model_mwide_strat_category,strat_group_user,1,0,0,0
user_category2,user_category2,model_mwide_strat_category,strat_group_manager,1,1,1,1

user_stratplan1,user_stratplan1,model_mwide_stratplan,strat_group_user,1,1,1,1
user_stratplan2,user_stratplan2,model_mwide_stratplan,strat_group_manager,1,1,1,1

access_task_link1,access_task_link1,model_task_link,strat_group_user,1,1,1,1
access_task_link2,access_task_link2,model_task_link,strat_group_manager,1,1,1,1