id,name,model_id:id,group_id:id,perm_read,perm_write,perm_create,perm_unlink
access_mwid_helpdesk_readonly,Helpdesk Readonly,model_mwide_helpdesk,base.group_user,1,0,0,0

user_filter_ticket_reports,user_filter_ticket_reports,model_itss_filter_ticket_reports,base.group_user,1,1,1,1
